<?xml version="1.0" encoding="UTF-8"?>
<svg width="42px" height="42px" viewBox="0 0 42 42" version="1.1" xmlns="http://www.w3.org/2000/svg" xmlns:xlink="http://www.w3.org/1999/xlink">
    <!-- Generator: Sketch 46 (44423) - http://www.bohemiancoding.com/sketch -->
    <title>Group 13</title>
    <desc>Created with Sketch.</desc>
    <defs></defs>
    <g id="Symbols" stroke="none" stroke-width="1" fill="none" fill-rule="evenodd">
        <g id="Group-13">
            <g id="Group-6-Copy-4" fill="#0098FF">
                <circle id="Oval-3-Copy" cx="21" cy="21" r="21"></circle>
            </g>
            <g id="walk-copy" transform="translate(15.000000, 8.000000)" stroke="#FFFFFF" stroke-width="2">
                <path d="M0,24 L4,16" id="Line" stroke-linecap="round"></path>
                <path d="M1,14.6544933 C1,14.6544933 1.0793404,13.2027006 1.1106333,11.9044643 C1.11621817,11.672767 1.17170705,10.0838269 1.49453747,9.35329949 C1.81736789,8.62277204 4.61247531,5.65005536 4.78206886,6.03408177 C4.95166242,6.41810818 4.74435985,11.1617568 4.78206886,11.9044643 C4.81977788,12.6471717 5.15040488,13.2887369 5.15040488,13.2887369 L7.98844709,15.4869826 C7.98844709,15.4869826 8.55188194,16.2265204 9.23025618,17.2567629 C9.90863042,18.2870054 11,24 11,24" id="Path-517" stroke-linecap="round"></path>
                <path d="M7,7 L9.19329696,9.08497901 C9.19329696,9.08497901 10.1174531,10.5146993 10.9103064,9.79983916 C11.7031597,9.08497901 13,7.5956573 13,7.5956573" id="Path-518" stroke-linecap="round"></path>
                <circle id="Oval-226" cx="7" cy="2" r="1"></circle>
            </g>
        </g>
    </g>
</svg>